icc2020cb_pre/build/SME.vcd
$date
    Aug 29, 2022  15:36:18
$end
$version
    TOOL:	ncsim(64)	15.20-s084
$end
$timescale
    10 ps
$end

$scope module testfixture $end
$var integer  32 !    linedata  $end
$var integer  32 "    char_count  $end
$var reg       1 #    clk  $end
$var wire      1 $    valid  $end
$var reg       1 %    reset  $end
$var reg       8 &    chardata [7:0] $end
$var reg       1 '    isstring  $end
$var reg       1 (    ispattern  $end
$var wire      1 )    match  $end
$var wire      5 *    match_index [4:0] $end
$var reg      23 +    cycle [22:0] $end
$var integer  32 ,    strindex  $end
$var reg       8 -    goldmatch_index [7:0] $end
$var reg       1 .    goldmatch  $end
$var reg       1 /    valid_reg  $end
$var reg       1 0    wait_valid  $end
$var reg       1 1    getmatch  $end
$var reg       8 2    getmatch_index [7:0] $end
$var integer  32 3    score  $end
$var integer  32 4    allpass  $end

$scope module u_SME $end
$var wire      1 5    clk  $end
$var wire      1 6    reset  $end
$var wire      8 7    chardata [7:0] $end
$var wire      1 8    isstring  $end
$var wire      1 9    ispattern  $end
$var reg       1 :    match  $end
$var reg       5 ;    match_index [4:0] $end
$var reg       1 <    valid  $end
$var reg       1 =    a  $end
$var reg       1 >    b  $end
$var reg       1 ?    c  $end
$var integer  32 @    i  $end
$var integer  32 A    j  $end
$var integer  32 B    k  $end
$var integer  32 C    l  $end
$upscope $end

$upscope $end


$scope module $unit_0x24ba8c39 $end

$scope task colordisplay $end
$var reg      13 D    cycle [12:0] $end
$var reg       1 E    goldmatch  $end
$var reg       8 F    goldmatchindex [7:0] $end
$var reg       1 G    getmatch  $end
$var reg       8 H    getmatchindex [7:0] $end
$var reg       2 I    pass [1:0] $end
$upscope $end

$upscope $end

$enddefinitions $end
$dumpvars
b10000000000000000000000000000011 !
bx "
0#
x$
0%
bx &
0'
0(
x)
bx *
b0 +
bx ,
bx -
x.
x/
x0
x1
bx 2
b0 3
b1 4
05
06
bx 7
08
09
x:
bx ;
x<
x=
x>
x?
bx @
bx A
bx B
bx C
bx D
xE
bx F
xG
bx H
bx I
$end
#1000
1#
b1 +
15
#1100
1%
16
b0 @
b1 @
b10 @
b11 @
b100 @
b101 @
b110 @
b111 @
b1000 @
b1001 @
b1010 @
b1011 @
b1100 @
b1101 @
b1110 @
b1111 @
b10000 @
b10001 @
b10010 @
b10011 @
b10100 @
b10101 @
b10110 @
b10111 @
b11000 @
b11001 @
b11010 @
b11011 @
b11100 @
b11101 @
b11110 @
b11111 @
b100000 @
b0 @
b1 @
b10 @
b11 @
b100 @
b101 @
b110 @
b111 @
b1000 @
b0 @
0<
b0 ;
0:
b0 A
0=
0>
0?
b0 B
b0 C
0)
b0 *
0$
#2000
0#
00
0/
05
#3000
1#
b10 +
15
b1 @
b10 @
b11 @
b100 @
b101 @
b110 @
b111 @
b1000 @
b1001 @
b1010 @
b1011 @
b1100 @
b1101 @
b1110 @
b1111 @
b10000 @
b10001 @
b10010 @
b10011 @
b10100 @
b10101 @
b10110 @
b10111 @
b11000 @
b11001 @
b11010 @
b11011 @
b11100 @
b11101 @
b11110 @
b11111 @
b100000 @
b0 @
b1 @
b10 @
b11 @
b100 @
b101 @
b110 @
b111 @
b1000 @
b0 @
#4000
0#
05
#5000
1#
b11 +
15
b1 @
b10 @
b11 @
b100 @
b101 @
b110 @
b111 @
b1000 @
b1001 @
b1010 @
b1011 @
b1100 @
b1101 @
b1110 @
b1111 @
b10000 @
b10001 @
b10010 @
b10011 @
b10100 @
b10101 @
b10110 @
b10111 @
b11000 @
b11001 @
b11010 @
b11011 @
b11100 @
b11101 @
b11110 @
b11111 @
b100000 @
b0 @
b1 @
b10 @
b11 @
b100 @
b101 @
b110 @
b111 @
b1000 @
b0 @
#6000
0#
05
#7000
1#
b100 +
15
b1 @
b10 @
b11 @
b100 @
b101 @
b110 @
b111 @
b1000 @
b1001 @
b1010 @
b1011 @
b1100 @
b1101 @
b1110 @
b1111 @
b10000 @
b10001 @
b10010 @
b10011 @
b10100 @
b10101 @
b10110 @
b10111 @
b11000 @
b11001 @
b11010 @
b11011 @
b11100 @
b11101 @
b11110 @
b11111 @
b100000 @
b0 @
b1 @
b10 @
b11 @
b100 @
b101 @
b110 @
b111 @
b1000 @
b0 @
#7100
0%
06
#8000
0#
b11100 "
1'
b0 ,
b1100001 &
05
b1100001 7
18
#9000
1#
b101 +
15
b1 @
1=
#10000
0#
b1 ,
b1100010 &
05
b1100010 7
#11000
1#
b110 +
15
b10 @
#12000
0#
b10 ,
b1100011 &
05
b1100011 7
#13000
1#
b111 +
15
b11 @
#14000
0#
b11 ,
b1100100 &
05
b1100100 7
#15000
1#
b1000 +
15
b100 @
#16000
0#
b100 ,
b1101001 &
05
b1101001 7
#17000
1#
b1001 +
15
b101 @
#18000
0#
b101 ,
b1101010 &
05
b1101010 7
#19000
1#
b1010 +
15
b110 @
#20000
0#
b110 ,
b1101011 &
05
b1101011 7
#21000
1#
b1011 +
15
b111 @
#22000
0#
b111 ,
b100000 &
05
b100000 7
#23000
1#
b1100 +
15
b1000 @
#24000
0#
b1000 ,
b1101100 &
05
b1101100 7
#25000
1#
b1101 +
15
b1001 @
#26000
0#
b1001 ,
b1101101 &
05
b1101101 7
#27000
1#
b1110 +
15
b1010 @
#28000
0#
b1010 ,
b1101110 &
05
b1101110 7
#29000
1#
b1111 +
15
b1011 @
#30000
0#
b1011 ,
b1101111 &
05
b1101111 7
#31000
1#
b10000 +
15
b1100 @
#32000
0#
b1100 ,
b1110000 &
05
b1110000 7
#33000
1#
b10001 +
15
b1101 @
#34000
0#
b1101 ,
b100000 &
05
b100000 7
#35000
1#
b10010 +
15
b1110 @
#36000
0#
b1110 ,
b1110001 &
05
b1110001 7
#37000
1#
b10011 +
15
b1111 @
#38000
0#
b1111 ,
b100000 &
05
b100000 7
#39000
1#
b10100 +
15
b10000 @
#40000
0#
b10000 ,
b1110010 &
05
b1110010 7
#41000
1#
b10101 +
15
b10001 @
#42000
0#
b10001 ,
b1110011 &
05
b1110011 7
#43000
1#
b10110 +
15
b10010 @
#44000
0#
b10010 ,
b1110100 &
05
b1110100 7
#45000
1#
b10111 +
15
b10011 @
#46000
0#
b10011 ,
b1110101 &
05
b1110101 7
#47000
1#
b11000 +
15
b10100 @
#48000
0#
b10100 ,
b1110110 &
05
b1110110 7
#49000
1#
b11001 +
15
b10101 @
#50000
0#
0'
b10000 "
1(
b0 ,
0.
b0 -
b110001 &
05
b110001 7
19
08
#51000
1#
b11010 +
15
b1 A
1>
#52000
0#
b1 ,
b110010 &
05
b110010 7
#53000
1#
b11011 +
15
b10 A
#54000
0#
b10 ,
b110011 &
05
b110011 7
#55000
1#
b11100 +
15
b11 A
#56000
0#
b11 ,
b110100 &
05
b110100 7
#57000
1#
b11101 +
15
b100 A
#58000
0#
10
0(
05
09
#59000
1#
b11110 +
15
b1 B
b1 ;
b1 *
#60000
0#
05
#61000
1#
b11111 +
15
b10 B
b10 ;
b10 *
#62000
0#
05
#63000
1#
b100000 +
15
b11 B
b11 ;
b11 *
#64000
0#
05
#65000
1#
b100001 +
15
b100 B
b100 ;
b100 *
#66000
0#
05
#67000
1#
b100010 +
15
b101 B
b101 ;
b101 *
#68000
0#
05
#69000
1#
b100011 +
15
b110 B
b110 ;
b110 *
#70000
0#
05
#71000
1#
b100100 +
15
b111 B
b111 ;
b111 *
#72000
0#
05
#73000
1#
b100101 +
15
b1000 B
b1000 ;
b1000 *
#74000
0#
05
#75000
1#
b100110 +
15
b1001 B
b1001 ;
b1001 *
#76000
0#
05
#77000
1#
b100111 +
15
b1010 B
b1010 ;
b1010 *
#78000
0#
05
#79000
1#
b101000 +
15
b1011 B
b1011 ;
b1011 *
#80000
0#
05
#81000
1#
b101001 +
15
b1100 B
b1100 ;
b1100 *
#82000
0#
05
#83000
1#
b101010 +
15
b1101 B
b1101 ;
b1101 *
#84000
0#
05
#85000
1#
b101011 +
15
b1110 B
b1110 ;
b1110 *
#86000
0#
05
#87000
1#
b101100 +
15
b1111 B
b1111 ;
b1111 *
#88000
0#
05
#89000
1#
b101101 +
15
b10000 B
b10000 ;
b10000 *
#90000
0#
05
#91000
1#
b101110 +
15
b10001 B
b10001 ;
b10001 *
#92000
0#
05
#93000
1#
b101111 +
15
b10010 B
b10010 ;
b10010 *
#94000
0#
05
#95000
1#
b110000 +
15
b10011 B
b10011 ;
b10011 *
#96000
0#
05
#97000
1#
b110001 +
15
b10100 B
b10100 ;
b10100 *
#98000
0#
05
#99000
1#
b110010 +
15
b10101 B
b10101 ;
b10101 *
#100000
0#
05
#101000
1#
b110011 +
15
1<
1$
#102000
0#
00
01
b10101 2
b1 3
1(
b0 ,
1.
b1100001 &
05
b1100001 7
19
0<
b0 ;
0=
0>
b0 B
b0 *
0$
#103000
1#
b110100 +
15
b0 A
b1 A
1>
#104000
0#
b1 ,
b1100010 &
05
b1100010 7
#105000
1#
b110101 +
15
b10 A
#106000
0#
b10 ,
b1100011 &
05
b1100011 7
#107000
1#
b110110 +
15
b11 A
#108000
0#
b11 ,
b1100100 &
05
b1100100 7
#109000
1#
b110111 +
15
b100 A
#110000
0#
10
0(
05
09
#111000
1#
b111000 +
15
b1 C
b1 B
#112000
0#
05
#113000
1#
b111001 +
15
b10 C
b10 B
#114000
0#
05
#115000
1#
b111010 +
15
b11 C
b11 B
#116000
0#
05
#117000
1#
b111011 +
15
b100 C
b100 B
#118000
0#
05
#119000
1#
b111100 +
15
1<
1:
1)
1$
#120000
0#
00
11
b0 2
b10 3
b100 3
1(
b0 ,
b11 -
05
19
0<
0:
0>
b0 B
b0 C
0)
0$
#121000
1#
b111101 +
15
b0 A
b1 A
1>
#122000
0#
b1 ,
b1101001 &
05
b1101001 7
#123000
1#
b111110 +
15
b10 A
#124000
0#
b10 ,
b1101010 &
05
b1101010 7
#125000
1#
b111111 +
15
b11 A
#126000
0#
b11 ,
b1101011 &
05
b1101011 7
#127000
1#
b1000000 +
15
b100 A
#128000
0#
10
0(
05
09
#129000
1#
b1000001 +
15
b1 B
b1 ;
b1 *
#130000
0#
05
#131000
1#
b1000010 +
15
b10 B
b10 ;
b10 *
#132000
0#
05
#133000
1#
b1000011 +
15
b11 B
b11 ;
b11 *
#134000
0#
05
#135000
1#
b1000100 +
15
b1 C
b100 B
#136000
0#
05
#137000
1#
b1000101 +
15
b10 C
b101 B
#138000
0#
05
#139000
1#
b1000110 +
15
b11 C
b110 B
#140000
0#
05
#141000
1#
b1000111 +
15
b100 C
b111 B
#142000
0#
05
#143000
1#
b1001000 +
15
1<
1:
1)
1$
#144000
0#
00
b11 2
b101 3
b111 3
b10001 "
1(
b0 ,
0.
b0 -
b1110000 &
05
b1110000 7
19
0<
b0 ;
0:
0>
b0 B
b0 C
0)
b0 *
0$
#145000
1#
b1001001 +
15
b0 A
b1 A
1>
#146000
0#
b1 ,
b1110001 &
05
b1110001 7
#147000
1#
b1001010 +
15
b10 A
#148000
0#
b10 ,
b1110010 &
05
b1110010 7
#149000
1#
b1001011 +
15
b11 A
#150000
0#
b11 ,
b1110011 &
05
b1110011 7
#151000
1#
b1001100 +
15
b100 A
#152000
0#
b100 ,
b1110100 &
05
b1110100 7
#153000
1#
b1001101 +
15
b101 A
#154000
0#
10
0(
05
09
#155000
1#
b1001110 +
15
b1 B
b1 ;
b1 *
#156000
0#
05
#157000
1#
b1001111 +
15
b10 B
b10 ;
b10 *
#158000
0#
05
#159000
1#
b1010000 +
15
b11 B
b11 ;
b11 *
#160000
0#
05
#161000
1#
b1010001 +
15
b100 B
b100 ;
b100 *
#162000
0#
05
#163000
1#
b1010010 +
15
b101 B
b101 ;
b101 *
#164000
0#
05
#165000
1#
b1010011 +
15
b110 B
b110 ;
b110 *
#166000
0#
05
#167000
1#
b1010100 +
15
b111 B
b111 ;
b111 *
#168000
0#
05
#169000
1#
b1010101 +
15
b1000 B
b1000 ;
b1000 *
#170000
0#
05
#171000
1#
b1010110 +
15
b1001 B
b1001 ;
b1001 *
#172000
0#
05
#173000
1#
b1010111 +
15
b1010 B
b1010 ;
b1010 *
#174000
0#
05
#175000
1#
b1011000 +
15
b1011 B
b1011 ;
b1011 *
#176000
0#
05
#177000
1#
b1011001 +
15
b1100 B
b1100 ;
b1100 *
#178000
0#
05
#179000
1#
b1011010 +
15
b1 C
b1101 B
#180000
0#
05
#181000
1#
b1011011 +
15
b1101 ;
b1101 *
b0 C
#182000
0#
05
#183000
1#
b1011100 +
15
b1110 B
b1110 ;
b1110 *
#184000
0#
05
#185000
1#
b1011101 +
15
b1111 B
b1111 ;
b1111 *
#186000
0#
05
#187000
1#
b1011110 +
15
b10000 B
b10000 ;
b10000 *
#188000
0#
05
#189000
1#
b1011111 +
15
b10001 B
b10001 ;
b10001 *
#190000
0#
05
#191000
1#
b1100000 +
15
b10010 B
b10010 ;
b10010 *
#192000
0#
05
#193000
1#
b1100001 +
15
b10011 B
b10011 ;
b10011 *
#194000
0#
05
#195000
1#
b1100010 +
15
b10100 B
b10100 ;
b10100 *
#196000
0#
05
#197000
1#
b1100011 +
15
b10101 B
b10101 ;
b10101 *
#198000
0#
05
#199000
1#
b1100100 +
15
1<
1$
#200000
0#
00
01
b10101 2
b1000 3
1(
b0 ,
b1110000 &
05
b1110000 7
19
0<
b0 ;
0>
b0 B
b0 *
0$
#201000
1#
b1100101 +
15
b0 A
b1 A
1>
#202000
0#
b1 ,
b1110001 &
05
b1110001 7
#203000
1#
b1100110 +
15
b10 A
#204000
0#
b10 ,
b1110010 &
05
b1110010 7
#205000
1#
b1100111 +
15
b11 A
#206000
0#
b11 ,
b101110 &
05
b101110 7
#207000
1#
b1101000 +
15
b100 A
#208000
0#
b100 ,
b1110100 &
05
b1110100 7
#209000
1#
b1101001 +
15
b101 A
#210000
0#
10
0(
05
09
#211000
1#
b1101010 +
15
b1 B
b1 ;
b1 *
#212000
0#
05
#213000
1#
b1101011 +
15
b10 B
b10 ;
b10 *
#214000
0#
05
#215000
1#
b1101100 +
15
b11 B
b11 ;
b11 *
#216000
0#
05
#217000
1#
b1101101 +
15
b100 B
b100 ;
b100 *
#218000
0#
05
#219000
1#
b1101110 +
15
b101 B
b101 ;
b101 *
#220000
0#
05
#221000
1#
b1101111 +
15
b110 B
b110 ;
b110 *
#222000
0#
05
#223000
1#
b1110000 +
15
b111 B
b111 ;
b111 *
#224000
0#
05
#225000
1#
b1110001 +
15
b1000 B
b1000 ;
b1000 *
#226000
0#
05
#227000
1#
b1110010 +
15
b1001 B
b1001 ;
b1001 *
#228000
0#
05
#229000
1#
b1110011 +
15
b1010 B
b1010 ;
b1010 *
#230000
0#
05
#231000
1#
b1110100 +
15
b1011 B
b1011 ;
b1011 *
#232000
0#
05
#233000
1#
b1110101 +
15
b1100 B
b1100 ;
b1100 *
#234000
0#
05
#235000
1#
b1110110 +
15
b1 C
b1101 B
#236000
0#
05
#237000
1#
b1110111 +
15
b1101 ;
b1101 *
b0 C
#238000
0#
05
#239000
1#
b1111000 +
15
b1110 B
b1110 ;
b1110 *
#240000
0#
05
#241000
1#
b1111001 +
15
b1111 B
b1111 ;
b1111 *
#242000
0#
05
#243000
1#
b1111010 +
15
b10000 B
b10000 ;
b10000 *
#244000
0#
05
#245000
1#
b1111011 +
15
b10001 B
b10001 ;
b10001 *
#246000
0#
05
#247000
1#
b1111100 +
15
b10010 B
b10010 ;
b10010 *
#248000
0#
05
#249000
1#
b1111101 +
15
b10011 B
b10011 ;
b10011 *
#250000
0#
05
#251000
1#
b1111110 +
15
b10100 B
b10100 ;
b10100 *
#252000
0#
05
#253000
1#
b1111111 +
15
b10101 B
b10101 ;
b10101 *
#254000
0#
05
#255000
1#
b10000000 +
15
1<
1$
#256000
0#
00
b1001 3
1(
b0 ,
1.
b10 -
b1100011 &
05
b1100011 7
19
0<
b0 ;
0>
b0 B
b0 *
0$
#257000
1#
b10000001 +
15
b0 A
b1 A
1>
#258000
0#
b1 ,
b101110 &
05
b101110 7
#259000
1#
b10000010 +
15
b10 A
#260000
0#
b10 ,
05
#261000
1#
b10000011 +
15
b11 A
#262000
0#
b11 ,
05
#263000
1#
b10000100 +
15
b100 A
#264000
0#
b100 ,
b1101011 &
05
b1101011 7
#265000
1#
b10000101 +
15
b101 A
#266000
0#
10
0(
05
09
#267000
1#
b10000110 +
15
b1 B
b1 ;
b1 *
#268000
0#
05
#269000
1#
b10000111 +
15
b10 B
b10 ;
b10 *
#270000
0#
05
#271000
1#
b10001000 +
15
b1 C
b11 B
#272000
0#
05
#273000
1#
b10001001 +
15
b10 C
b100 B
#274000
0#
05
#275000
1#
b10001010 +
15
b11 C
b101 B
#276000
0#
05
#277000
1#
b10001011 +
15
b100 C
b110 B
#278000
0#
05
#279000
1#
b10001100 +
15
b101 C
b111 B
#280000
0#
05
#281000
1#
b10001101 +
15
1<
1:
1)
1$
#282000
0#
00
11
b10 2
b1010 3
b1100 3
1(
b0 ,
b1000 -
b1011110 &
05
b1011110 7
19
0<
b0 ;
0:
0>
b0 B
b0 C
0)
b0 *
0$
#283000
1#
b10001110 +
15
b0 A
b1 A
1>
#284000
0#
b1 ,
b1101100 &
05
b1101100 7
#285000
1#
b10001111 +
15
b10 A
#286000
0#
b10 ,
b1101101 &
05
b1101101 7
#287000
1#
b10010000 +
15
b11 A
#288000
0#
b11 ,
b1101110 &
05
b1101110 7
#289000
1#
b10010001 +
15
b100 A
#290000
0#
b100 ,
b1101111 &
05
b1101111 7
#291000
1#
b10010010 +
15
b101 A
#292000
0#
10
0(
05
09
#293000
1#
b10010011 +
15
1?
b1 C
#294000
0#
05
#295000
1#
b10010100 +
15
b1 B
b1 ;
0?
b1 *
b0 C
#296000
0#
05
#297000
1#
b10010101 +
15
b10 B
#298000
0#
05
#299000
1#
b10010110 +
15
b11 B
#300000
0#
05
#301000
1#
b10010111 +
15
b100 B
#302000
0#
05
#303000
1#
b10011000 +
15
b101 B
#304000
0#
05
#305000
1#
b10011001 +
15
b110 B
#306000
0#
05
#307000
1#
b10011010 +
15
b111 B
#308000
0#
05
#309000
1#
b10011011 +
15
b1000 B
#310000
0#
05
#311000
1#
b10011100 +
15
1?
b1 C
b1000 ;
b1000 *
#312000
0#
05
#313000
1#
b10011101 +
15
b10 C
b1001 B
#314000
0#
05
#315000
1#
b10011110 +
15
b11 C
b1010 B
#316000
0#
05
#317000
1#
b10011111 +
15
b100 C
b1011 B
#318000
0#
05
#319000
1#
b10100000 +
15
b101 C
b1100 B
#320000
0#
05
#321000
1#
b10100001 +
15
1<
1:
1)
1$
#322000
0#
00
b1000 2
b1101 3
b1111 3
b10010 "
1(
b0 ,
b10000 -
b1110010 &
05
b1110010 7
19
0<
b0 ;
0:
0>
0?
b0 B
b0 C
0)
b0 *
0$
#323000
1#
b10100010 +
15
b0 A
b1 A
1>
#324000
0#
b1 ,
b1110011 &
05
b1110011 7
#325000
1#
b10100011 +
15
b10 A
#326000
0#
b10 ,
b1110100 &
05
b1110100 7
#327000
1#
b10100100 +
15
b11 A
#328000
0#
b11 ,
b1110101 &
05
b1110101 7
#329000
1#
b10100101 +
15
b100 A
#330000
0#
b100 ,
b1110110 &
05
b1110110 7
#331000
1#
b10100110 +
15
b101 A
#332000
0#
b101 ,
b100100 &
05
b100100 7
#333000
1#
b10100111 +
15
b110 A
#334000
0#
10
0(
05
09
#335000
1#
b10101000 +
15
b1 B
b1 ;
b1 *
#336000
0#
05
#337000
1#
b10101001 +
15
b10 B
b10 ;
b10 *
#338000
0#
05
#339000
1#
b10101010 +
15
b11 B
b11 ;
b11 *
#340000
0#
05
#341000
1#
b10101011 +
15
b100 B
b100 ;
b100 *
#342000
0#
05
#343000
1#
b10101100 +
15
b101 B
b101 ;
b101 *
#344000
0#
05
#345000
1#
b10101101 +
15
b110 B
b110 ;
b110 *
#346000
0#
05
#347000
1#
b10101110 +
15
b111 B
b111 ;
b111 *
#348000
0#
05
#349000
1#
b10101111 +
15
b1000 B
b1000 ;
b1000 *
#350000
0#
05
#351000
1#
b10110000 +
15
b1001 B
b1001 ;
b1001 *
#352000
0#
05
#353000
1#
b10110001 +
15
b1010 B
b1010 ;
b1010 *
#354000
0#
05
#355000
1#
b10110010 +
15
b1011 B
b1011 ;
b1011 *
#356000
0#
05
#357000
1#
b10110011 +
15
b1100 B
b1100 ;
b1100 *
#358000
0#
05
#359000
1#
b10110100 +
15
b1101 B
b1101 ;
b1101 *
#360000
0#
05
#361000
1#
b10110101 +
15
b1110 B
b1110 ;
b1110 *
#362000
0#
05
#363000
1#
b10110110 +
15
b1111 B
b1111 ;
b1111 *
#364000
0#
05
#365000
1#
b10110111 +
15
b10000 B
b10000 ;
b10000 *
#366000
0#
05
#367000
1#
b10111000 +
15
b1 C
b10001 B
#368000
0#
05
#369000
1#
b10111001 +
15
b10 C
b10010 B
#370000
0#
05
#371000
1#
b10111010 +
15
b11 C
b10011 B
#372000
0#
05
#373000
1#
b10111011 +
15
b100 C
b10100 B
#374000
0#
05
#375000
1#
b10111100 +
15
b101 C
b10101 B
#376000
0#
05
#377000
1#
b10111101 +
15
1:
1<
1$
1)
#378000
0#
00
b10000 2
b10000 3
b10010 3
b10000 "
1(
b0 ,
0.
b0 -
b1011110 &
05
b1011110 7
19
0<
b0 ;
0:
0>
b0 B
b0 C
0)
b0 *
0$
#379000
1#
b10111110 +
15
b0 A
b1 A
1>
#380000
0#
b1 ,
b1110010 &
05
b1110010 7
#381000
1#
b10111111 +
15
b10 A
#382000
0#
b10 ,
b1101101 &
05
b1101101 7
#383000
1#
b11000000 +
15
b11 A
#384000
0#
b11 ,
b1101110 &
05
b1101110 7
#385000
1#
b11000001 +
15
b100 A
#386000
0#
10
0(
05
09
#387000
1#
b11000010 +
15
1?
b1 C
#388000
0#
05
#389000
1#
b11000011 +
15
b1 B
b1 ;
0?
b1 *
b0 C
#390000
0#
05
#391000
1#
b11000100 +
15
b10 B
#392000
0#
05
#393000
1#
b11000101 +
15
b11 B
#394000
0#
05
#395000
1#
b11000110 +
15
b100 B
#396000
0#
05
#397000
1#
b11000111 +
15
b101 B
#398000
0#
05
#399000
1#
b11001000 +
15
b110 B
#400000
0#
05
#401000
1#
b11001001 +
15
b111 B
#402000
0#
05
#403000
1#
b11001010 +
15
b1000 B
#404000
0#
05
#405000
1#
b11001011 +
15
1?
b1 C
b1000 ;
b1000 *
#406000
0#
05
#407000
1#
b11001100 +
15
b1001 B
b1001 ;
0?
b1001 *
b0 C
#408000
0#
05
#409000
1#
b11001101 +
15
b1010 B
#410000
0#
05
#411000
1#
b11001110 +
15
b1011 B
#412000
0#
05
#413000
1#
b11001111 +
15
b1100 B
#414000
0#
05
#415000
1#
b11010000 +
15
b1101 B
#416000
0#
05
#417000
1#
b11010001 +
15
b1110 B
#418000
0#
05
#419000
1#
b11010010 +
15
1?
b1 C
b1110 ;
b1110 *
#420000
0#
05
#421000
1#
b11010011 +
15
b1111 B
b1111 ;
0?
b1111 *
b0 C
#422000
0#
05
#423000
1#
b11010100 +
15
b10000 B
#424000
0#
05
#425000
1#
b11010101 +
15
1?
b1 C
b10000 ;
b10000 *
#426000
0#
05
#427000
1#
b11010110 +
15
b10 C
b10001 B
#428000
0#
05
#429000
1#
b11010111 +
15
b10001 ;
0?
b10001 *
b0 C
#430000
0#
05
#431000
1#
b11011000 +
15
b10010 B
#432000
0#
05
#433000
1#
b11011001 +
15
b10011 B
#434000
0#
05
#435000
1#
b11011010 +
15
b10100 B
#436000
0#
05
#437000
1#
b11011011 +
15
b10101 B
#438000
0#
05
#439000
1#
b11011100 +
15
b10110 B
1<
1$
#440000
0#
00
01
b10001 2
b10011 3
b10010 "
1(
b0 ,
b1101001 &
05
b1101001 7
19
0<
b0 ;
0>
b0 B
b0 *
0$
#441000
1#
b11011101 +
15
b0 A
b1 A
1>
#442000
0#
b1 ,
b1101010 &
05
b1101010 7
#443000
1#
b11011110 +
15
b10 A
#444000
0#
b10 ,
b1101011 &
05
b1101011 7
#445000
1#
b11011111 +
15
b11 A
#446000
0#
b11 ,
b100000 &
05
b100000 7
#447000
1#
b11100000 +
15
b100 A
#448000
0#
b100 ,
b1101100 &
05
b1101100 7
#449000
1#
b11100001 +
15
b101 A
#450000
0#
b101 ,
b100100 &
05
b100100 7
#451000
1#
b11100010 +
15
b110 A
#452000
0#
10
0(
05
09
#453000
1#
b11100011 +
15
b1 B
b1 ;
b1 *
#454000
0#
05
#455000
1#
b11100100 +
15
b10 B
b10 ;
b10 *
#456000
0#
05
#457000
1#
b11100101 +
15
b11 B
b11 ;
b11 *
#458000
0#
05
#459000
1#
b11100110 +
15
b100 B
b100 ;
b100 *
#460000
0#
05
#461000
1#
b11100111 +
15
b1 C
b101 B
#462000
0#
05
#463000
1#
b11101000 +
15
b10 C
b110 B
#464000
0#
05
#465000
1#
b11101001 +
15
b11 C
b111 B
#466000
0#
05
#467000
1#
b11101010 +
15
b100 C
b1000 B
#468000
0#
05
#469000
1#
b11101011 +
15
b101 C
b1001 B
#470000
0#
05
#471000
1#
b11101100 +
15
b0 C
b1010 B
#472000
0#
05
#473000
1#
b11101101 +
15
b1011 B
b1011 ;
b1011 *
#474000
0#
05
#475000
1#
b11101110 +
15
b1100 B
b1100 ;
b1100 *
#476000
0#
05
#477000
1#
b11101111 +
15
b1101 B
b1101 ;
b1101 *
#478000
0#
05
#479000
1#
b11110000 +
15
b1110 B
b1110 ;
b1110 *
#480000
0#
05
#481000
1#
b11110001 +
15
b1111 B
b1111 ;
b1111 *
#482000
0#
05
#483000
1#
b11110010 +
15
b10000 B
b10000 ;
b10000 *
#484000
0#
05
#485000
1#
b11110011 +
15
b10001 B
b10001 ;
b10001 *
#486000
0#
05
#487000
1#
b11110100 +
15
b10010 B
b10010 ;
b10010 *
#488000
0#
05
#489000
1#
b11110101 +
15
b10011 B
b10011 ;
b10011 *
#490000
0#
05
#491000
1#
b11110110 +
15
b10100 B
b10100 ;
b10100 *
#492000
0#
05
#493000
1#
b11110111 +
15
b10101 B
b10101 ;
b10101 *
#494000
0#
05
#495000
1#
b11111000 +
15
1<
1$
#496000
0#
00
b10101 2
b10100 3
b1101 "
1(
b0 ,
1.
b10100 -
b1110110 &
05
b1110110 7
19
0<
b0 ;
0>
b0 B
b0 *
0$
#497000
1#
b11111001 +
15
b0 A
b1 A
1>
#498000
0#
10
0(
05
09
#499000
1#
b11111010 +
15
b1 B
b1 ;
b1 *
#500000
0#
05
#501000
1#
b11111011 +
15
b10 B
b10 ;
b10 *
#502000
0#
05
#503000
1#
b11111100 +
15
b11 B
b11 ;
b11 *
#504000
0#
05
#505000
1#
b11111101 +
15
b100 B
b100 ;
b100 *
#506000
0#
05
#507000
1#
b11111110 +
15
b101 B
b101 ;
b101 *
#508000
0#
05
#509000
1#
b11111111 +
15
b110 B
b110 ;
b110 *
#510000
0#
05
#511000
1#
b100000000 +
15
b111 B
b111 ;
b111 *
#512000
0#
05
#513000
1#
b100000001 +
15
b1000 B
b1000 ;
b1000 *
#514000
0#
05
#515000
1#
b100000010 +
15
b1001 B
b1001 ;
b1001 *
#516000
0#
05
#517000
1#
b100000011 +
15
b1010 B
b1010 ;
b1010 *
#518000
0#
05
#519000
1#
b100000100 +
15
b1011 B
b1011 ;
b1011 *
#520000
0#
05
#521000
1#
b100000101 +
15
b1100 B
b1100 ;
b1100 *
#522000
0#
05
#523000
1#
b100000110 +
15
b1101 B
b1101 ;
b1101 *
#524000
0#
05
#525000
1#
b100000111 +
15
b1110 B
b1110 ;
b1110 *
#526000
0#
05
#527000
1#
b100001000 +
15
b1111 B
b1111 ;
b1111 *
#528000
0#
05
#529000
1#
b100001001 +
15
b10000 B
b10000 ;
b10000 *
#530000
0#
05
#531000
1#
b100001010 +
15
b10001 B
b10001 ;
b10001 *
#532000
0#
05
#533000
1#
b100001011 +
15
b10010 B
b10010 ;
b10010 *
#534000
0#
05
#535000
1#
b100001100 +
15
b10011 B
b10011 ;
b10011 *
#536000
0#
05
#537000
1#
b100001101 +
15
b10100 B
b10100 ;
b10100 *
#538000
0#
05
#539000
1#
b100001110 +
15
b1 C
b10101 B
#540000
0#
05
#541000
1#
b100001111 +
15
1<
1:
1)
1$
#542000
0#
00
11
b10100 2
b10101 3
b10111 3
b10100 "
1(
0.
b0 -
b1101100 &
05
b1101100 7
19
0<
b0 ;
0:
0>
b0 B
b0 C
0)
b0 *
0$
#543000
1#
b100010000 +
15
b0 A
b1 A
1>
#544000
0#
b1 ,
b1101101 &
05
b1101101 7
#545000
1#
b100010001 +
15
b10 A
#546000
0#
b10 ,
b1101110 &
05
b1101110 7
#547000
1#
b100010010 +
15
b11 A
#548000
0#
b11 ,
b1101111 &
05
b1101111 7
#549000
1#
b100010011 +
15
b100 A
#550000
0#
b100 ,
b1110000 &
05
b1110000 7
#551000
1#
b100010100 +
15
b101 A
#552000
0#
b101 ,
b1110010 &
05
b1110010 7
#553000
1#
b100010101 +
15
b110 A
#554000
0#
b110 ,
b1110011 &
05
b1110011 7
#555000
1#
b100010110 +
15
b111 A
#556000
0#
b111 ,
b1110100 &
05
b1110100 7
#557000
1#
b100010111 +
15
b1000 A
#558000
0#
10
0(
05
09
#559000
1#
b100011000 +
15
b1 B
b1 ;
b1 *
#560000
0#
05
#561000
1#
b100011001 +
15
b10 B
b10 ;
b10 *
#562000
0#
05
#563000
1#
b100011010 +
15
b11 B
b11 ;
b11 *
#564000
0#
05
#565000
1#
b100011011 +
15
b100 B
b100 ;
b100 *
#566000
0#
05
#567000
1#
b100011100 +
15
b101 B
b101 ;
b101 *
#568000
0#
05
#569000
1#
b100011101 +
15
b110 B
b110 ;
b110 *
#570000
0#
05
#571000
1#
b100011110 +
15
b111 B
b111 ;
b111 *
#572000
0#
05
